{
    "/vendor/css/appwork-material.css": "/vendor/css/appwork-material.css?id=0fce2c3068ae54fe42fa",
    "/vendor/css/appwork.css": "/vendor/css/appwork.css?id=c77f58bb33fd2df06572",
    "/vendor/css/bootstrap-material.css": "/vendor/css/bootstrap-material.css?id=27fcdc34dbd72feba9fc",
    "/vendor/css/bootstrap.css": "/vendor/css/bootstrap.css?id=1bcf73f71ddbf8851b2a",
    "/vendor/css/colors-material.css": "/vendor/css/colors-material.css?id=5f9e459f674ca21f81c9",
    "/vendor/css/colors.css": "/vendor/css/colors.css?id=b1b1835a69516eda5820",
    "/vendor/css/pages/account.css": "/vendor/css/pages/account.css?id=eebf99597758771fe2db",
    "/vendor/css/pages/authentication.css": "/vendor/css/pages/authentication.css?id=3b4d8c398f035fc868e8",
    "/vendor/css/pages/chat.css": "/vendor/css/pages/chat.css?id=80605d39d1a8f5937047",
    "/vendor/css/pages/clients.css": "/vendor/css/pages/clients.css?id=6c28c47aef463a50c5fe",
    "/vendor/css/pages/contacts.css": "/vendor/css/pages/contacts.css?id=3be0d52eb976c9d3a3e2",
    "/vendor/css/pages/file-manager.css": "/vendor/css/pages/file-manager.css?id=bc4655fd0843bc78961f",
    "/vendor/css/pages/messages.css": "/vendor/css/pages/messages.css?id=323cfc28491e430312f7",
    "/vendor/css/pages/products.css": "/vendor/css/pages/products.css?id=934facd03b1418b36475",
    "/vendor/css/pages/projects.css": "/vendor/css/pages/projects.css?id=c3a30cb29c2c42c28cb3",
    "/vendor/css/pages/search.css": "/vendor/css/pages/search.css?id=03db2249199810b4bdf8",
    "/vendor/css/pages/tasks.css": "/vendor/css/pages/tasks.css?id=0daac9b4e9e8097842c8",
    "/vendor/css/pages/tickets.css": "/vendor/css/pages/tickets.css?id=5106dbd616415fdd5e6c",
    "/vendor/css/pages/users.css": "/vendor/css/pages/users.css?id=8ef6171dad29cad78296",
    "/vendor/css/rtl/appwork-material.css": "/vendor/css/rtl/appwork-material.css?id=14c90c26f1f2b7265416",
    "/vendor/css/rtl/appwork.css": "/vendor/css/rtl/appwork.css?id=49a3c34a706716fa3a82",
    "/vendor/css/rtl/bootstrap-material.css": "/vendor/css/rtl/bootstrap-material.css?id=553d8fb54b80bed56879",
    "/vendor/css/rtl/bootstrap.css": "/vendor/css/rtl/bootstrap.css?id=5210aabc9053e7229ded",
    "/vendor/css/rtl/colors-material.css": "/vendor/css/rtl/colors-material.css?id=c73e35d3f3c5b948a522",
    "/vendor/css/rtl/colors.css": "/vendor/css/rtl/colors.css?id=b1b1835a69516eda5820",
    "/vendor/css/rtl/theme-air-material.css": "/vendor/css/rtl/theme-air-material.css?id=16955f266cd9ba9e6f93",
    "/vendor/css/rtl/theme-air.css": "/vendor/css/rtl/theme-air.css?id=8368c428968c2f8fb189",
    "/vendor/css/rtl/theme-corporate-material.css": "/vendor/css/rtl/theme-corporate-material.css?id=55115333d0eed4182550",
    "/vendor/css/rtl/theme-corporate.css": "/vendor/css/rtl/theme-corporate.css?id=3aa9e776752b4458a49c",
    "/vendor/css/rtl/theme-cotton-material.css": "/vendor/css/rtl/theme-cotton-material.css?id=09ca45becc6e428b76f9",
    "/vendor/css/rtl/theme-cotton.css": "/vendor/css/rtl/theme-cotton.css?id=827491da07b6e91f50e8",
    "/vendor/css/rtl/theme-gradient-material.css": "/vendor/css/rtl/theme-gradient-material.css?id=c536edd6450583851a0e",
    "/vendor/css/rtl/theme-gradient.css": "/vendor/css/rtl/theme-gradient.css?id=27eb307576a5de0b2a22",
    "/vendor/css/rtl/theme-paper-material.css": "/vendor/css/rtl/theme-paper-material.css?id=4767221356783e89b272",
    "/vendor/css/rtl/theme-paper.css": "/vendor/css/rtl/theme-paper.css?id=f68af20da63b846ec153",
    "/vendor/css/rtl/theme-shadow-material.css": "/vendor/css/rtl/theme-shadow-material.css?id=5c99eb8facf3e9eb0a1a",
    "/vendor/css/rtl/theme-shadow.css": "/vendor/css/rtl/theme-shadow.css?id=6899fd1b1280e4c0a9de",
    "/vendor/css/rtl/theme-soft-material.css": "/vendor/css/rtl/theme-soft-material.css?id=4f9f6d05152eee8c11d8",
    "/vendor/css/rtl/theme-soft.css": "/vendor/css/rtl/theme-soft.css?id=9bae4f375d045c2d91dd",
    "/vendor/css/rtl/theme-sunrise-material.css": "/vendor/css/rtl/theme-sunrise-material.css?id=07923fbfd55934e729d4",
    "/vendor/css/rtl/theme-sunrise.css": "/vendor/css/rtl/theme-sunrise.css?id=19aa801948fc755d3c17",
    "/vendor/css/rtl/theme-twitlight-material.css": "/vendor/css/rtl/theme-twitlight-material.css?id=cbea99ad00c815aa59cf",
    "/vendor/css/rtl/theme-twitlight.css": "/vendor/css/rtl/theme-twitlight.css?id=f3a87e6caabf34a8f2a7",
    "/vendor/css/rtl/theme-vibrant-material.css": "/vendor/css/rtl/theme-vibrant-material.css?id=0038b0b86345373edae9",
    "/vendor/css/rtl/theme-vibrant.css": "/vendor/css/rtl/theme-vibrant.css?id=ff9f5b1d16158641ab0d",
    "/vendor/css/rtl/uikit.css": "/vendor/css/rtl/uikit.css?id=f6da32fab7d8b81966a4",
    "/vendor/css/theme-air-material.css": "/vendor/css/theme-air-material.css?id=16955f266cd9ba9e6f93",
    "/vendor/css/theme-air.css": "/vendor/css/theme-air.css?id=8368c428968c2f8fb189",
    "/vendor/css/theme-corporate-material.css": "/vendor/css/theme-corporate-material.css?id=55115333d0eed4182550",
    "/vendor/css/theme-corporate.css": "/vendor/css/theme-corporate.css?id=3aa9e776752b4458a49c",
    "/vendor/css/theme-cotton-material.css": "/vendor/css/theme-cotton-material.css?id=09ca45becc6e428b76f9",
    "/vendor/css/theme-cotton.css": "/vendor/css/theme-cotton.css?id=827491da07b6e91f50e8",
    "/vendor/css/theme-gradient-material.css": "/vendor/css/theme-gradient-material.css?id=c536edd6450583851a0e",
    "/vendor/css/theme-gradient.css": "/vendor/css/theme-gradient.css?id=27eb307576a5de0b2a22",
    "/vendor/css/theme-paper-material.css": "/vendor/css/theme-paper-material.css?id=4767221356783e89b272",
    "/vendor/css/theme-paper.css": "/vendor/css/theme-paper.css?id=f68af20da63b846ec153",
    "/vendor/css/theme-shadow-material.css": "/vendor/css/theme-shadow-material.css?id=5c99eb8facf3e9eb0a1a",
    "/vendor/css/theme-shadow.css": "/vendor/css/theme-shadow.css?id=6899fd1b1280e4c0a9de",
    "/vendor/css/theme-soft-material.css": "/vendor/css/theme-soft-material.css?id=4f9f6d05152eee8c11d8",
    "/vendor/css/theme-soft.css": "/vendor/css/theme-soft.css?id=9bae4f375d045c2d91dd",
    "/vendor/css/theme-sunrise-material.css": "/vendor/css/theme-sunrise-material.css?id=07923fbfd55934e729d4",
    "/vendor/css/theme-sunrise.css": "/vendor/css/theme-sunrise.css?id=19aa801948fc755d3c17",
    "/vendor/css/theme-twitlight-material.css": "/vendor/css/theme-twitlight-material.css?id=cbea99ad00c815aa59cf",
    "/vendor/css/theme-twitlight.css": "/vendor/css/theme-twitlight.css?id=f3a87e6caabf34a8f2a7",
    "/vendor/css/theme-vibrant-material.css": "/vendor/css/theme-vibrant-material.css?id=0038b0b86345373edae9",
    "/vendor/css/theme-vibrant.css": "/vendor/css/theme-vibrant.css?id=ff9f5b1d16158641ab0d",
    "/vendor/css/uikit.css": "/vendor/css/uikit.css?id=f6da32fab7d8b81966a4",
    "/vendor/libs/animate-css/animate.css": "/vendor/libs/animate-css/animate.css?id=c27929b7f72bff965855",
    "/vendor/libs/blueimp-gallery/gallery-indicator.css": "/vendor/libs/blueimp-gallery/gallery-indicator.css?id=a8a0edcedf6902597027",
    "/vendor/libs/bootstrap-datepicker/bootstrap-datepicker.css": "/vendor/libs/bootstrap-datepicker/bootstrap-datepicker.css?id=51ac5856b5d63cb185cb",
    "/vendor/libs/bootstrap-daterangepicker/bootstrap-daterangepicker.css": "/vendor/libs/bootstrap-daterangepicker/bootstrap-daterangepicker.css?id=4722bde60d2e194f137f",
    "/vendor/libs/bootstrap-duallistbox/bootstrap-duallistbox.css": "/vendor/libs/bootstrap-duallistbox/bootstrap-duallistbox.css?id=fa359a14ab6799e4f646",
    "/vendor/libs/bootstrap-markdown/bootstrap-markdown.css": "/vendor/libs/bootstrap-markdown/bootstrap-markdown.css?id=955b1d2ea8e7a430b41c",
    "/vendor/libs/bootstrap-material-datetimepicker/bootstrap-material-datetimepicker.css": "/vendor/libs/bootstrap-material-datetimepicker/bootstrap-material-datetimepicker.css?id=e9147c7e6e64ce013dee",
    "/vendor/libs/bootstrap-maxlength/bootstrap-maxlength.css": "/vendor/libs/bootstrap-maxlength/bootstrap-maxlength.css?id=0cb44f4c017aad4fcbac",
    "/vendor/libs/bootstrap-multiselect/bootstrap-multiselect.css": "/vendor/libs/bootstrap-multiselect/bootstrap-multiselect.css?id=3d04331583dca9fd718a",
    "/vendor/libs/bootstrap-select/bootstrap-select.css": "/vendor/libs/bootstrap-select/bootstrap-select.css?id=a63f88288acd9c76cba4",
    "/vendor/libs/bootstrap-slider/bootstrap-slider.css": "/vendor/libs/bootstrap-slider/bootstrap-slider.css?id=af4c03fb5178f5785bc7",
    "/vendor/libs/bootstrap-sortable/bootstrap-sortable.css": "/vendor/libs/bootstrap-sortable/bootstrap-sortable.css?id=fb379d6fad5f2f379838",
    "/vendor/libs/bootstrap-sweetalert/bootstrap-sweetalert.css": "/vendor/libs/bootstrap-sweetalert/bootstrap-sweetalert.css?id=dc0dc7955ec5213b8d46",
    "/vendor/libs/bootstrap-table/bootstrap-table.css": "/vendor/libs/bootstrap-table/bootstrap-table.css?id=e440382338fd06076319",
    "/vendor/libs/bootstrap-table/extensions/auto-refresh/auto-refresh.css": "/vendor/libs/bootstrap-table/extensions/auto-refresh/auto-refresh.css?id=35218c6bc5dc06b66ee1",
    "/vendor/libs/bootstrap-table/extensions/click-edit-row/click-edit-row.css": "/vendor/libs/bootstrap-table/extensions/click-edit-row/click-edit-row.css?id=881d8bb08ace1b857003",
    "/vendor/libs/bootstrap-table/extensions/filter-control/filter-control.css": "/vendor/libs/bootstrap-table/extensions/filter-control/filter-control.css?id=f4a8ac2526ea462778d1",
    "/vendor/libs/bootstrap-table/extensions/group-by-v2/group-by-v2.css": "/vendor/libs/bootstrap-table/extensions/group-by-v2/group-by-v2.css?id=7b615e97c190828d3ff1",
    "/vendor/libs/bootstrap-table/extensions/group-by/group-by.css": "/vendor/libs/bootstrap-table/extensions/group-by/group-by.css?id=bbf44511b53330d39963",
    "/vendor/libs/bootstrap-table/extensions/multiple-selection-row/multiple-selection-row.css": "/vendor/libs/bootstrap-table/extensions/multiple-selection-row/multiple-selection-row.css?id=26a665ea5a585863faff",
    "/vendor/libs/bootstrap-table/extensions/reorder-rows/reorder-rows.css": "/vendor/libs/bootstrap-table/extensions/reorder-rows/reorder-rows.css?id=d68b4dbaf6bdfdd88b0d",
    "/vendor/libs/bootstrap-table/extensions/sticky-header/sticky-header.css": "/vendor/libs/bootstrap-table/extensions/sticky-header/sticky-header.css?id=2b67f19014a63d470bde",
    "/vendor/libs/bootstrap-table/extensions/tree-column/tree-column.css": "/vendor/libs/bootstrap-table/extensions/tree-column/tree-column.css?id=df44bbbf5822cdd635d4",
    "/vendor/libs/bootstrap-tagsinput/bootstrap-tagsinput.css": "/vendor/libs/bootstrap-tagsinput/bootstrap-tagsinput.css?id=f40c05af1fdb87f212e4",
    "/vendor/libs/bootstrap-tour/bootstrap-tour.css": "/vendor/libs/bootstrap-tour/bootstrap-tour.css?id=faa7394dd2f535692588",
    "/vendor/libs/c3/c3.css": "/vendor/libs/c3/c3.css?id=9271887c38301d62aea8",
    "/vendor/libs/chartist/chartist.css": "/vendor/libs/chartist/chartist.css?id=6aa0dfc9ec6ab971b1c2",
    "/vendor/libs/cropper/cropper.css": "/vendor/libs/cropper/cropper.css?id=33f034ddd1cd56ff4839",
    "/vendor/libs/datatables/datatables.css": "/vendor/libs/datatables/datatables.css?id=2db3c88c43789e3f8261",
    "/vendor/libs/dragula/dragula.css": "/vendor/libs/dragula/dragula.css?id=ef4ea985f99830bd638f",
    "/vendor/libs/dropzone/dropzone.css": "/vendor/libs/dropzone/dropzone.css?id=cb012bca865b77b3ef86",
    "/vendor/libs/flot/flot.css": "/vendor/libs/flot/flot.css?id=a3fdb43f294886cd0eb7",
    "/vendor/libs/flow-js/flow.css": "/vendor/libs/flow-js/flow.css?id=a935aada04dac4020f95",
    "/vendor/libs/fullcalendar/fullcalendar.css": "/vendor/libs/fullcalendar/fullcalendar.css?id=cb2e359ef3b0bd88fd9a",
    "/vendor/libs/growl/growl.css": "/vendor/libs/growl/growl.css?id=cddbc91737fb264ed071",
    "/vendor/libs/ladda/ladda.css": "/vendor/libs/ladda/ladda.css?id=10240b940bed8bfde2d0",
    "/vendor/libs/minicolors/minicolors.css": "/vendor/libs/minicolors/minicolors.css?id=57255ce937f686977541",
    "/vendor/libs/morris/morris.css": "/vendor/libs/morris/morris.css?id=1c571452bc03634919d6",
    "/vendor/libs/nestable/nestable.css": "/vendor/libs/nestable/nestable.css?id=65875678da3a48c3932a",
    "/vendor/libs/nouislider/nouislider.css": "/vendor/libs/nouislider/nouislider.css?id=517eec5bbd9ada2f0bfe",
    "/vendor/libs/perfect-scrollbar/perfect-scrollbar.css": "/vendor/libs/perfect-scrollbar/perfect-scrollbar.css?id=a7c58926b40376d3532f",
    "/vendor/libs/photoswipe/photoswipe.css": "/vendor/libs/photoswipe/photoswipe.css?id=eeb8ae81f436b8cc8db2",
    "/vendor/libs/plyr/plyr.css": "/vendor/libs/plyr/plyr.css?id=8999b98f3eaf835b70ea",
    "/vendor/libs/quill/editor.css": "/vendor/libs/quill/editor.css?id=952d9cff21b698fb7f4c",
    "/vendor/libs/quill/typography.css": "/vendor/libs/quill/typography.css?id=8e76a553d23b912ea109",
    "/vendor/libs/select2/select2.css": "/vendor/libs/select2/select2.css?id=5a3f00945ae3e4150793",
    "/vendor/libs/smartwizard/smartwizard.css": "/vendor/libs/smartwizard/smartwizard.css?id=a15e3c047a33400e4fa7",
    "/vendor/libs/spinkit/spinkit.css": "/vendor/libs/spinkit/spinkit.css?id=3d92e356cc2b9e9a98f6",
    "/vendor/libs/swiper/swiper.css": "/vendor/libs/swiper/swiper.css?id=32ef79888b2760ad2cce",
    "/vendor/libs/timepicker/timepicker.css": "/vendor/libs/timepicker/timepicker.css?id=a2623802cd84323d5c4e",
    "/vendor/libs/toastr/toastr.css": "/vendor/libs/toastr/toastr.css?id=f9a862c6d4e3256dec9c",
    "/vendor/libs/typeahead-js/typeahead.css": "/vendor/libs/typeahead-js/typeahead.css?id=dc6952684c5690f3f812",
    "/vendor/js/bootstrap.js": "/vendor/js/bootstrap.js?id=6113b83df53fed0f9634",
    "/vendor/js/dropdown-hover.js": "/vendor/js/dropdown-hover.js?id=84574273d79ff67f182a",
    "/vendor/js/layout-helpers.js": "/vendor/js/layout-helpers.js?id=d1461f303a8f7d7735a3",
    "/vendor/js/material-ripple.js": "/vendor/js/material-ripple.js?id=a3b9e7a0806fd14be9b1",
    "/vendor/js/mega-dropdown.js": "/vendor/js/mega-dropdown.js?id=a6ac38f4a425380c1d0a",
    "/vendor/js/pace.js": "/vendor/js/pace.js?id=c04f8cefb618b8c942fc",
    "/vendor/js/sidenav.js": "/vendor/js/sidenav.js?id=9b27f0acb8ec5d73ee95",
    "/vendor/js/theme-settings.js": "/vendor/js/theme-settings.js?id=e3bc24878f64866b5bf9",
    "/vendor/libs/autosize/autosize.js": "/vendor/libs/autosize/autosize.js?id=b4528ab1eb1816da2a8b",
    "/vendor/libs/block-ui/block-ui.js": "/vendor/libs/block-ui/block-ui.js?id=a06a5246573b9465ff61",
    "/vendor/libs/blueimp-gallery/gallery-fullscreen.js": "/vendor/libs/blueimp-gallery/gallery-fullscreen.js?id=584ddf9478ddc391e82e",
    "/vendor/libs/blueimp-gallery/gallery-indicator.js": "/vendor/libs/blueimp-gallery/gallery-indicator.js?id=dc284a45666a1f69939b",
    "/vendor/libs/blueimp-gallery/gallery-video.js": "/vendor/libs/blueimp-gallery/gallery-video.js?id=b1e11d9928dd53347b41",
    "/vendor/libs/blueimp-gallery/gallery-vimeo.js": "/vendor/libs/blueimp-gallery/gallery-vimeo.js?id=3d3ec953ab4265ef0067",
    "/vendor/libs/blueimp-gallery/gallery-youtube.js": "/vendor/libs/blueimp-gallery/gallery-youtube.js?id=382bd80806edddc88ecf",
    "/vendor/libs/blueimp-gallery/gallery.js": "/vendor/libs/blueimp-gallery/gallery.js?id=9fafdfdfa6557aa6ab4e",
    "/vendor/libs/blueimp-gallery/jquery.gallery.js": "/vendor/libs/blueimp-gallery/jquery.gallery.js?id=25c6b1ace25eb4428761",
    "/vendor/libs/bootbox/bootbox.js": "/vendor/libs/bootbox/bootbox.js?id=9fb8f3eb4a2181e565c5",
    "/vendor/libs/bootstrap-datepicker/bootstrap-datepicker.js": "/vendor/libs/bootstrap-datepicker/bootstrap-datepicker.js?id=9de1a8e5a001843441c1",
    "/vendor/libs/bootstrap-daterangepicker/bootstrap-daterangepicker.js": "/vendor/libs/bootstrap-daterangepicker/bootstrap-daterangepicker.js?id=c3aec5b2144761ae856c",
    "/vendor/libs/bootstrap-duallistbox/bootstrap-duallistbox.js": "/vendor/libs/bootstrap-duallistbox/bootstrap-duallistbox.js?id=da0315ef4bb67c1494e3",
    "/vendor/libs/bootstrap-markdown/bootstrap-markdown.js": "/vendor/libs/bootstrap-markdown/bootstrap-markdown.js?id=a9cc64c69007ab695cb3",
    "/vendor/libs/bootstrap-material-datetimepicker/bootstrap-material-datetimepicker.js": "/vendor/libs/bootstrap-material-datetimepicker/bootstrap-material-datetimepicker.js?id=1fba314fc294beb4c35b",
    "/vendor/libs/bootstrap-maxlength/bootstrap-maxlength.js": "/vendor/libs/bootstrap-maxlength/bootstrap-maxlength.js?id=7d3522b93ce0bd079324",
    "/vendor/libs/bootstrap-menu/bootstrap-menu.js": "/vendor/libs/bootstrap-menu/bootstrap-menu.js?id=67afed063cf91efb78e0",
    "/vendor/libs/bootstrap-multiselect/bootstrap-multiselect.js": "/vendor/libs/bootstrap-multiselect/bootstrap-multiselect.js?id=77c6e0c10e066df120d4",
    "/vendor/libs/bootstrap-select/bootstrap-select.js": "/vendor/libs/bootstrap-select/bootstrap-select.js?id=7e8a0834578e74a1d86e",
    "/vendor/libs/bootstrap-slider/bootstrap-slider.js": "/vendor/libs/bootstrap-slider/bootstrap-slider.js?id=1137f812560571a307b4",
    "/vendor/libs/bootstrap-sortable/bootstrap-sortable.js": "/vendor/libs/bootstrap-sortable/bootstrap-sortable.js?id=58a7586b76e05f8df6a6",
    "/vendor/libs/bootstrap-sweetalert/bootstrap-sweetalert.js": "/vendor/libs/bootstrap-sweetalert/bootstrap-sweetalert.js?id=dd9be0f40d0c52df8da5",
    "/vendor/libs/bootstrap-table/bootstrap-table.js": "/vendor/libs/bootstrap-table/bootstrap-table.js?id=43498d049004ac382596",
    "/vendor/libs/bootstrap-table/extensions/accent-neutralise/accent-neutralise.js": "/vendor/libs/bootstrap-table/extensions/accent-neutralise/accent-neutralise.js?id=1ee6ee07638c003d1582",
    "/vendor/libs/bootstrap-table/extensions/auto-refresh/auto-refresh.js": "/vendor/libs/bootstrap-table/extensions/auto-refresh/auto-refresh.js?id=4ad92de4e759b00bbb32",
    "/vendor/libs/bootstrap-table/extensions/click-edit-row/click-edit-row.js": "/vendor/libs/bootstrap-table/extensions/click-edit-row/click-edit-row.js?id=25fa14afc520c38cd488",
    "/vendor/libs/bootstrap-table/extensions/cookie/cookie.js": "/vendor/libs/bootstrap-table/extensions/cookie/cookie.js?id=c295429c31f23c83caac",
    "/vendor/libs/bootstrap-table/extensions/copy-rows/copy-rows.js": "/vendor/libs/bootstrap-table/extensions/copy-rows/copy-rows.js?id=ccc71cea2c8eeac44afb",
    "/vendor/libs/bootstrap-table/extensions/editable/editable.js": "/vendor/libs/bootstrap-table/extensions/editable/editable.js?id=19ceb0897eacaccbc443",
    "/vendor/libs/bootstrap-table/extensions/export/export.js": "/vendor/libs/bootstrap-table/extensions/export/export.js?id=0c0438b4fc8d963ff6a1",
    "/vendor/libs/bootstrap-table/extensions/filter-control/filter-control.js": "/vendor/libs/bootstrap-table/extensions/filter-control/filter-control.js?id=82be984068d5d8e65b4c",
    "/vendor/libs/bootstrap-table/extensions/filter/filter.js": "/vendor/libs/bootstrap-table/extensions/filter/filter.js?id=5aba4668fd479d53da4f",
    "/vendor/libs/bootstrap-table/extensions/flat-json/flat-json.js": "/vendor/libs/bootstrap-table/extensions/flat-json/flat-json.js?id=6252bf38992cd427af06",
    "/vendor/libs/bootstrap-table/extensions/group-by-v2/group-by-v2.js": "/vendor/libs/bootstrap-table/extensions/group-by-v2/group-by-v2.js?id=273755d1a244e54978f4",
    "/vendor/libs/bootstrap-table/extensions/group-by/group-by.js": "/vendor/libs/bootstrap-table/extensions/group-by/group-by.js?id=ee7942faaee9bcb944c1",
    "/vendor/libs/bootstrap-table/extensions/key-events/key-events.js": "/vendor/libs/bootstrap-table/extensions/key-events/key-events.js?id=95fdaf076a60eeae4349",
    "/vendor/libs/bootstrap-table/extensions/mobile/mobile.js": "/vendor/libs/bootstrap-table/extensions/mobile/mobile.js?id=e2f44f9c379311b43b35",
    "/vendor/libs/bootstrap-table/extensions/multi-column-toggle/multi-column-toggle.js": "/vendor/libs/bootstrap-table/extensions/multi-column-toggle/multi-column-toggle.js?id=3a2555c09f9187ab4a00",
    "/vendor/libs/bootstrap-table/extensions/multiple-search/multiple-search.js": "/vendor/libs/bootstrap-table/extensions/multiple-search/multiple-search.js?id=0e449448b362337e5e4a",
    "/vendor/libs/bootstrap-table/extensions/multiple-selection-row/multiple-selection-row.js": "/vendor/libs/bootstrap-table/extensions/multiple-selection-row/multiple-selection-row.js?id=abf0a7e15925fd2fd0ec",
    "/vendor/libs/bootstrap-table/extensions/multiple-sort/multiple-sort.js": "/vendor/libs/bootstrap-table/extensions/multiple-sort/multiple-sort.js?id=b29840a686f9b423909b",
    "/vendor/libs/bootstrap-table/extensions/natural-sorting/natural-sorting.js": "/vendor/libs/bootstrap-table/extensions/natural-sorting/natural-sorting.js?id=bd4aa9cb45086e566fd9",
    "/vendor/libs/bootstrap-table/extensions/print/print.js": "/vendor/libs/bootstrap-table/extensions/print/print.js?id=8d908545be7034c8def7",
    "/vendor/libs/bootstrap-table/extensions/reorder-columns/reorder-columns.js": "/vendor/libs/bootstrap-table/extensions/reorder-columns/reorder-columns.js?id=966359363743c697ad15",
    "/vendor/libs/bootstrap-table/extensions/reorder-rows/reorder-rows.js": "/vendor/libs/bootstrap-table/extensions/reorder-rows/reorder-rows.js?id=018db2af85480eb135cb",
    "/vendor/libs/bootstrap-table/extensions/resizable/resizable.js": "/vendor/libs/bootstrap-table/extensions/resizable/resizable.js?id=5068719276c0472dd942",
    "/vendor/libs/bootstrap-table/extensions/select2-filter/select2-filter.js": "/vendor/libs/bootstrap-table/extensions/select2-filter/select2-filter.js?id=7fd8e61c49198ced828b",
    "/vendor/libs/bootstrap-table/extensions/sticky-header/sticky-header.js": "/vendor/libs/bootstrap-table/extensions/sticky-header/sticky-header.js?id=6a43d2fd1c7e9e87bd0c",
    "/vendor/libs/bootstrap-table/extensions/toolbar/toolbar.js": "/vendor/libs/bootstrap-table/extensions/toolbar/toolbar.js?id=6510e7e0deb0c1b5a3ac",
    "/vendor/libs/bootstrap-table/extensions/tree-column/tree-column.js": "/vendor/libs/bootstrap-table/extensions/tree-column/tree-column.js?id=1af2c628b8d9b81842d3",
    "/vendor/libs/bootstrap-tagsinput/bootstrap-tagsinput.js": "/vendor/libs/bootstrap-tagsinput/bootstrap-tagsinput.js?id=cbfbc4b3de28cfceac7e",
    "/vendor/libs/bootstrap-tour/bootstrap-tour.js": "/vendor/libs/bootstrap-tour/bootstrap-tour.js?id=5854242b04048c907f87",
    "/vendor/libs/c3/c3.js": "/vendor/libs/c3/c3.js?id=213d6779310edc9a71af",
    "/vendor/libs/chartist/chartist.js": "/vendor/libs/chartist/chartist.js?id=8c291480a6e0a035cdbb",
    "/vendor/libs/chartjs/chartjs.js": "/vendor/libs/chartjs/chartjs.js?id=ad5e2c3e01051071782c",
    "/vendor/libs/clipboard/clipboard.js": "/vendor/libs/clipboard/clipboard.js?id=51cc1026b7a9cb131327",
    "/vendor/libs/cropper/cropper.js": "/vendor/libs/cropper/cropper.js?id=36cd95ae9bcf4bf074e7",
    "/vendor/libs/d3/d3.js": "/vendor/libs/d3/d3.js?id=5c7875fb7952918c13e4",
    "/vendor/libs/datatables/datatables.js": "/vendor/libs/datatables/datatables.js?id=a8425d049f82223dd664",
    "/vendor/libs/dragula/dragula.js": "/vendor/libs/dragula/dragula.js?id=13955f1d3078a891b37f",
    "/vendor/libs/dropzone/dropzone.js": "/vendor/libs/dropzone/dropzone.js?id=85a63e673e441ccccd2a",
    "/vendor/libs/eve/eve.js": "/vendor/libs/eve/eve.js?id=cadca5548549bd5122f5",
    "/vendor/libs/flot/flot.js": "/vendor/libs/flot/flot.js?id=23ffed415f580daed836",
    "/vendor/libs/flow-js/flow.js": "/vendor/libs/flow-js/flow.js?id=af8ab711ef912837809f",
    "/vendor/libs/fullcalendar/fullcalendar.js": "/vendor/libs/fullcalendar/fullcalendar.js?id=0d9e54df5a5b82972c7b",
    "/vendor/libs/fullcalendar/locale-all.js": "/vendor/libs/fullcalendar/locale-all.js?id=70522536a99b47a5b9fb",
    "/vendor/libs/gmaps/gmaps.js": "/vendor/libs/gmaps/gmaps.js?id=a2e0f6fde2ac510721c4",
    "/vendor/libs/growl/growl.js": "/vendor/libs/growl/growl.js?id=27a9a3adcd3d1fd8e368",
    "/vendor/libs/idletimer/idletimer.js": "/vendor/libs/idletimer/idletimer.js?id=5238aa59f8b8f872e49d",
    "/vendor/libs/jstree/jstree.js": "/vendor/libs/jstree/jstree.js?id=822e2f9fb36f997206c3",
    "/vendor/libs/knob/knob.js": "/vendor/libs/knob/knob.js?id=2638fb05968ddf7ebc45",
    "/vendor/libs/ladda/ladda.js": "/vendor/libs/ladda/ladda.js?id=e5a9472b146913260830",
    "/vendor/libs/mapael/mapael.js": "/vendor/libs/mapael/mapael.js?id=827a66ad1b86fb128be5",
    "/vendor/libs/mapael/maps/france_departments.js": "/vendor/libs/mapael/maps/france_departments.js?id=cbe5985b174e41bc62e8",
    "/vendor/libs/mapael/maps/usa_states.js": "/vendor/libs/mapael/maps/usa_states.js?id=41b932b1758afb1e5d84",
    "/vendor/libs/mapael/maps/world_countries_mercator.js": "/vendor/libs/mapael/maps/world_countries_mercator.js?id=7546fe33655f85b104b0",
    "/vendor/libs/mapael/maps/world_countries_miller.js": "/vendor/libs/mapael/maps/world_countries_miller.js?id=af84cd62ca4e07764e3d",
    "/vendor/libs/mapael/maps/world_countries.js": "/vendor/libs/mapael/maps/world_countries.js?id=a0056a018f7a84508e8f",
    "/vendor/libs/markdown/markdown.js": "/vendor/libs/markdown/markdown.js?id=33aeef44ed1af0d8bb4a",
    "/vendor/libs/masonry/masonry.js": "/vendor/libs/masonry/masonry.js?id=d25f5551762d1aeb502a",
    "/vendor/libs/minicolors/minicolors.js": "/vendor/libs/minicolors/minicolors.js?id=029ec1fa503274ea0e87",
    "/vendor/libs/moment/moment.js": "/vendor/libs/moment/moment.js?id=8bee7a1295c498157ce5",
    "/vendor/libs/morris/morris.js": "/vendor/libs/morris/morris.js?id=5e9bb72d68a053b6c41a",
    "/vendor/libs/nestable/nestable.js": "/vendor/libs/nestable/nestable.js?id=2dab227288991ab54eff",
    "/vendor/libs/nouislider/nouislider.js": "/vendor/libs/nouislider/nouislider.js?id=b32b9c2183dbddf6da58",
    "/vendor/libs/numeral/numeral.js": "/vendor/libs/numeral/numeral.js?id=11d8654d68988f3272ae",
    "/vendor/libs/perfect-scrollbar/perfect-scrollbar.js": "/vendor/libs/perfect-scrollbar/perfect-scrollbar.js?id=54d0173fe31e1a6a66ba",
    "/vendor/libs/photoswipe/photoswipe.js": "/vendor/libs/photoswipe/photoswipe.js?id=31db3a97880fe5f457f7",
    "/vendor/libs/plyr/plyr.js": "/vendor/libs/plyr/plyr.js?id=80873ce744be51c34c1f",
    "/vendor/libs/popper/popper.js": "/vendor/libs/popper/popper.js?id=a45deb8515814d271c6b",
    "/vendor/libs/pwstrength-bootstrap/pwstrength-bootstrap.js": "/vendor/libs/pwstrength-bootstrap/pwstrength-bootstrap.js?id=41d7f8b5c982942d53d4",
    "/vendor/libs/quill/quill.js": "/vendor/libs/quill/quill.js?id=c2943acae37354e2b848",
    "/vendor/libs/raphael/raphael.js": "/vendor/libs/raphael/raphael.js?id=59f6fff469aaadbb649e",
    "/vendor/libs/select2/select2.js": "/vendor/libs/select2/select2.js?id=87297110128293208856",
    "/vendor/libs/smartwizard/smartwizard.js": "/vendor/libs/smartwizard/smartwizard.js?id=09265f7a4fe2fcff53af",
    "/vendor/libs/sortablejs/sortable.js": "/vendor/libs/sortablejs/sortable.js?id=8d4186fb2f3fa05070b0",
    "/vendor/libs/sparkline/sparkline.js": "/vendor/libs/sparkline/sparkline.js?id=35424395db87f23ad31e",
    "/vendor/libs/spin/spin.js": "/vendor/libs/spin/spin.js?id=b0ea04bdf45bcfc4313e",
    "/vendor/libs/swiper/swiper.js": "/vendor/libs/swiper/swiper.js?id=93e6791b8abc9d504258",
    "/vendor/libs/tableexport/tableexport.js": "/vendor/libs/tableexport/tableexport.js?id=80aad0e433443d929aa0",
    "/vendor/libs/timepicker/timepicker.js": "/vendor/libs/timepicker/timepicker.js?id=25f04722cecfb48e5a0b",
    "/vendor/libs/toastr/toastr.js": "/vendor/libs/toastr/toastr.js?id=1cab78bde8e8a737c47d",
    "/vendor/libs/typeahead-js/typeahead.js": "/vendor/libs/typeahead-js/typeahead.js?id=10a6a8c6d688ec784865",
    "/vendor/libs/validate/validate.js": "/vendor/libs/validate/validate.js?id=057afc42e8e9cf167ae4",
    "/vendor/libs/vanilla-text-mask/text-mask-addons.js": "/vendor/libs/vanilla-text-mask/text-mask-addons.js?id=9dcf361a9f404fa61959",
    "/vendor/libs/vanilla-text-mask/vanilla-text-mask.js": "/vendor/libs/vanilla-text-mask/vanilla-text-mask.js?id=def1c7b4d1095b2b67ed",
    "/vendor/libs/vegas/vegas.js": "/vendor/libs/vegas/vegas.js?id=13a075433c76adf40ac9",
    "/vendor/fonts/fontawesome.css": "/vendor/fonts/fontawesome.css?id=6a54df2a2be0247e440c",
    "/vendor/fonts/ionicons.css": "/vendor/fonts/ionicons.css?id=df31e25819529315bb67",
    "/vendor/fonts/linearicons.css": "/vendor/fonts/linearicons.css?id=9a2987f556bfaa568a2a",
    "/vendor/fonts/open-iconic.css": "/vendor/fonts/open-iconic.css?id=8427dd9c497eab4e5445",
    "/vendor/fonts/pe-icon-7-stroke.css": "/vendor/fonts/pe-icon-7-stroke.css?id=dc26a41697dc31d3297d",
    "/vendor/fonts/fontawesome/fa-brands-400.eot": "/vendor/fonts/fontawesome/fa-brands-400.eot?id=1c4abc6966ced4605afd",
    "/vendor/fonts/fontawesome/fa-brands-400.svg": "/vendor/fonts/fontawesome/fa-brands-400.svg?id=fb63cafaa06be3cf4b3f",
    "/vendor/fonts/fontawesome/fa-brands-400.ttf": "/vendor/fonts/fontawesome/fa-brands-400.ttf?id=1283f75a2a75519de941",
    "/vendor/fonts/fontawesome/fa-brands-400.woff": "/vendor/fonts/fontawesome/fa-brands-400.woff?id=9403db885a132551a89e",
    "/vendor/fonts/fontawesome/fa-brands-400.woff2": "/vendor/fonts/fontawesome/fa-brands-400.woff2?id=fc2bae34043ae7842e5a",
    "/vendor/fonts/fontawesome/fa-regular-400.eot": "/vendor/fonts/fontawesome/fa-regular-400.eot?id=77764e70529cef097514",
    "/vendor/fonts/fontawesome/fa-regular-400.svg": "/vendor/fonts/fontawesome/fa-regular-400.svg?id=dc462b43bea3a81f007d",
    "/vendor/fonts/fontawesome/fa-regular-400.ttf": "/vendor/fonts/fontawesome/fa-regular-400.ttf?id=2347da17603916183713",
    "/vendor/fonts/fontawesome/fa-regular-400.woff": "/vendor/fonts/fontawesome/fa-regular-400.woff?id=69c228f97efe7b131b78",
    "/vendor/fonts/fontawesome/fa-regular-400.woff2": "/vendor/fonts/fontawesome/fa-regular-400.woff2?id=1a39c154f54bd283d99c",
    "/vendor/fonts/fontawesome/fa-solid-900.eot": "/vendor/fonts/fontawesome/fa-solid-900.eot?id=6c9df7d7765b07775135",
    "/vendor/fonts/fontawesome/fa-solid-900.svg": "/vendor/fonts/fontawesome/fa-solid-900.svg?id=eef28c7717bab063642a",
    "/vendor/fonts/fontawesome/fa-solid-900.ttf": "/vendor/fonts/fontawesome/fa-solid-900.ttf?id=4196684a3310eff16d45",
    "/vendor/fonts/fontawesome/fa-solid-900.woff": "/vendor/fonts/fontawesome/fa-solid-900.woff?id=978e0778116991092c24",
    "/vendor/fonts/fontawesome/fa-solid-900.woff2": "/vendor/fonts/fontawesome/fa-solid-900.woff2?id=5c0e300182aa03279242",
    "/vendor/fonts/ionicons/ionicons.eot": "/vendor/fonts/ionicons/ionicons.eot?id=45802d5439af4166d0dc",
    "/vendor/fonts/ionicons/ionicons.svg": "/vendor/fonts/ionicons/ionicons.svg?id=adc3d0c70dbeb6cfdd89",
    "/vendor/fonts/ionicons/ionicons.ttf": "/vendor/fonts/ionicons/ionicons.ttf?id=0c135bfe9179a42ed542",
    "/vendor/fonts/ionicons/ionicons.woff": "/vendor/fonts/ionicons/ionicons.woff?id=6d7d36e039e52dacc24e",
    "/vendor/fonts/ionicons/ionicons.woff2": "/vendor/fonts/ionicons/ionicons.woff2?id=9a80c12757705b51eb8a",
    "/vendor/fonts/linearicons/Linearicons-Free.eot": "/vendor/fonts/linearicons/Linearicons-Free.eot?id=7b72309f7fab12e0c188",
    "/vendor/fonts/linearicons/Linearicons-Free.svg": "/vendor/fonts/linearicons/Linearicons-Free.svg?id=cdd4387bb50b7a5277d5",
    "/vendor/fonts/linearicons/Linearicons-Free.ttf": "/vendor/fonts/linearicons/Linearicons-Free.ttf?id=f2f253ebf3515a812e91",
    "/vendor/fonts/linearicons/Linearicons-Free.woff": "/vendor/fonts/linearicons/Linearicons-Free.woff?id=5e3e200505fc8c59be31",
    "/vendor/fonts/linearicons/Linearicons-Free.woff2": "/vendor/fonts/linearicons/Linearicons-Free.woff2?id=e5240b31e930efb46871",
    "/vendor/fonts/open-iconic/open-iconic.eot": "/vendor/fonts/open-iconic/open-iconic.eot?id=12e0048c17015001b24d",
    "/vendor/fonts/open-iconic/open-iconic.otf": "/vendor/fonts/open-iconic/open-iconic.otf?id=2abff499cb698b5196aa",
    "/vendor/fonts/open-iconic/open-iconic.svg": "/vendor/fonts/open-iconic/open-iconic.svg?id=8217b7ac84b409b12968",
    "/vendor/fonts/open-iconic/open-iconic.ttf": "/vendor/fonts/open-iconic/open-iconic.ttf?id=257ea4bb2a58e9a1d2f1",
    "/vendor/fonts/open-iconic/open-iconic.woff": "/vendor/fonts/open-iconic/open-iconic.woff?id=fd20c1cd3c9abfabe0ba",
    "/vendor/fonts/pe-icon-7-stroke/Pe-icon-7-stroke.eot": "/vendor/fonts/pe-icon-7-stroke/Pe-icon-7-stroke.eot?id=dc784df262dfe00ad4e9",
    "/vendor/fonts/pe-icon-7-stroke/Pe-icon-7-stroke.svg": "/vendor/fonts/pe-icon-7-stroke/Pe-icon-7-stroke.svg?id=e390da45acf2f68dabea",
    "/vendor/fonts/pe-icon-7-stroke/Pe-icon-7-stroke.ttf": "/vendor/fonts/pe-icon-7-stroke/Pe-icon-7-stroke.ttf?id=23f2d673dcd7b6ba52bd",
    "/vendor/fonts/pe-icon-7-stroke/Pe-icon-7-stroke.woff": "/vendor/fonts/pe-icon-7-stroke/Pe-icon-7-stroke.woff?id=85499d365c0c2ce3ad9d",
    "/js/charts_c3.js": "/js/charts_c3.js?id=70977fb227e9b299b7f9",
    "/js/charts_chartist.js": "/js/charts_chartist.js?id=373774a82f6fcd006cc0",
    "/js/charts_chartjs.js": "/js/charts_chartjs.js?id=461d39b75fcd711f7f0f",
    "/js/charts_flot.js": "/js/charts_flot.js?id=e8a7fd3b767dec5d1d94",
    "/js/charts_gmaps.js": "/js/charts_gmaps.js?id=17907649d73a4eccf3dc",
    "/js/charts_mapael.js": "/js/charts_mapael.js?id=87b757543642bd643fe9",
    "/js/charts_morrisjs.js": "/js/charts_morrisjs.js?id=b6b5b7bc02fb064ce5c4",
    "/js/charts_sparkline.js": "/js/charts_sparkline.js?id=998ca1f154478dfeb5da",
    "/js/dashboards_dashboard-1.js": "/js/dashboards_dashboard-1.js?id=d54658cb3bd77d09e5c4",
    "/js/dashboards_dashboard-2.js": "/js/dashboards_dashboard-2.js?id=f4d95c32c4e9c909fa72",
    "/js/dashboards_dashboard-3.js": "/js/dashboards_dashboard-3.js?id=e915954ae70a38075278",
    "/js/dashboards_dashboard-4.js": "/js/dashboards_dashboard-4.js?id=30a664e2ce01db29bd37",
    "/js/dashboards_dashboard-5.js": "/js/dashboards_dashboard-5.js?id=a379ad3a20016da808ad",
    "/js/demo.js": "/js/demo.js?id=963e3cf419204fa27ff3",
    "/js/forms_custom-controls.js": "/js/forms_custom-controls.js?id=2ba809f535cf124759d2",
    "/js/forms_dual-listbox.js": "/js/forms_dual-listbox.js?id=94d22ae2423a87f9773d",
    "/js/forms_editors.js": "/js/forms_editors.js?id=facdac36cc5e9bac0251",
    "/js/forms_extras.js": "/js/forms_extras.js?id=4166a3d0d6aa68911cfe",
    "/js/forms_file-upload.js": "/js/forms_file-upload.js?id=78306315e6baf649497c",
    "/js/forms_input-groups.js": "/js/forms_input-groups.js?id=335189e6da8b99df64ef",
    "/js/forms_pickers.js": "/js/forms_pickers.js?id=ed3959123c5962330318",
    "/js/forms_selects.js": "/js/forms_selects.js?id=ff08caaf3851bc302e24",
    "/js/forms_sliders.js": "/js/forms_sliders.js?id=0b826e8d036e252a30b6",
    "/js/forms_typeahead.js": "/js/forms_typeahead.js?id=fb85ab58c3e93e8b127a",
    "/js/forms_validation.js": "/js/forms_validation.js?id=15541a961e66a4702b01",
    "/js/forms_wizard.js": "/js/forms_wizard.js?id=4f81f8377be9c2be8e17",
    "/js/layouts.js": "/js/layouts.js?id=148d65455ecb05cf212b",
    "/js/misc_blockui.js": "/js/misc_blockui.js?id=ade177b5717ff2a035ac",
    "/js/misc_clipboardjs.js": "/js/misc_clipboardjs.js?id=9f5661ddf431d303d6a4",
    "/js/misc_idle-timer.js": "/js/misc_idle-timer.js?id=a576ae61771685e4cd60",
    "/js/misc_ladda.js": "/js/misc_ladda.js?id=5b493f5b8cb18653a1ac",
    "/js/misc_masonry.js": "/js/misc_masonry.js?id=622b6b5db9a9cd1e4217",
    "/js/misc_numeraljs.js": "/js/misc_numeraljs.js?id=b9742e60df5910f52399",
    "/js/misc_perfect-scrollbar.js": "/js/misc_perfect-scrollbar.js?id=0af3c669ba2e4c4ff7a7",
    "/js/misc_vegasjs.js": "/js/misc_vegasjs.js?id=1bbbcad13de74fcd493d",
    "/js/pages_account-settings.js": "/js/pages_account-settings.js?id=ef7eb4d3de347203bdd4",
    "/js/pages_articles_edit.js": "/js/pages_articles_edit.js?id=8516952658aab5a83f2b",
    "/js/pages_articles_list.js": "/js/pages_articles_list.js?id=80455904fbd3f9bbbc5b",
    "/js/pages_chat.js": "/js/pages_chat.js?id=2d7f170ad9bc00019b5d",
    "/js/pages_clients.js": "/js/pages_clients.js?id=bd135a7e7acd0f0dfd74",
    "/js/pages_contacts.js": "/js/pages_contacts.js?id=26e1ffd415a0195522c5",
    "/js/pages_e-commerce_order-list.js": "/js/pages_e-commerce_order-list.js?id=5eef52188276ba8afa97",
    "/js/pages_e-commerce_product-edit.js": "/js/pages_e-commerce_product-edit.js?id=b675faae7f6d56236658",
    "/js/pages_e-commerce_product-item.js": "/js/pages_e-commerce_product-item.js?id=e13b9f6eeb936af15318",
    "/js/pages_e-commerce_product-list.js": "/js/pages_e-commerce_product-list.js?id=c02574be4970a2f6e16f",
    "/js/pages_file-manager.js": "/js/pages_file-manager.js?id=5fb93ebff65d03d49142",
    "/js/pages_gallery.js": "/js/pages_gallery.js?id=09fe33f312e93e784988",
    "/js/pages_kanban-board.js": "/js/pages_kanban-board.js?id=8aed94ed6e86d14524f3",
    "/js/pages_messages.js": "/js/pages_messages.js?id=4f9bcd5b03eb78b94105",
    "/js/pages_projects_item.js": "/js/pages_projects_item.js?id=399a1bb76d9e0a0c69df",
    "/js/pages_projects_list.js": "/js/pages_projects_list.js?id=2386424214fb7ef4865a",
    "/js/pages_task-list.js": "/js/pages_task-list.js?id=bf3ec2ca8b74b9455556",
    "/js/pages_teams.js": "/js/pages_teams.js?id=e750d6c5abaf85429fc0",
    "/js/pages_tickets_edit.js": "/js/pages_tickets_edit.js?id=bd373dc966b2e619591c",
    "/js/pages_tickets_list.js": "/js/pages_tickets_list.js?id=cbb75a5e435c70c586ba",
    "/js/pages_users_edit.js": "/js/pages_users_edit.js?id=3fdb2a1a79cf84be0592",
    "/js/pages_users_list.js": "/js/pages_users_list.js?id=67c958c90abc022346be",
    "/js/pages_vacancies.js": "/js/pages_vacancies.js?id=8a88fd695c9e2ae3fb60",
    "/js/tables_bootstrap-table.js": "/js/tables_bootstrap-table.js?id=843f804c9a72d26376d4",
    "/js/tables_datatables.js": "/js/tables_datatables.js?id=bf7e911c90fe46ecdac0",
    "/js/ui_app-brand.js": "/js/ui_app-brand.js?id=0f4e592d134bad968f37",
    "/js/ui_button-groups.js": "/js/ui_button-groups.js?id=b92a73d560936ffd5e40",
    "/js/ui_carousel.js": "/js/ui_carousel.js?id=975831924de1ec3931df",
    "/js/ui_cropper.js": "/js/ui_cropper.js?id=8134fa51fbfe62450dfa",
    "/js/ui_drag-and-drop.js": "/js/ui_drag-and-drop.js?id=82e2eb69e8dc9db8e831",
    "/js/ui_dropdowns.js": "/js/ui_dropdowns.js?id=318f6324e776254c260e",
    "/js/ui_fullcalendar.js": "/js/ui_fullcalendar.js?id=0f5077f0acae22227229",
    "/js/ui_lightbox.js": "/js/ui_lightbox.js?id=ca1b1f6bb51cdedc9113",
    "/js/ui_media-player.js": "/js/ui_media-player.js?id=ac55f9e8ec85a38290cd",
    "/js/ui_modals.js": "/js/ui_modals.js?id=dab10ca7ced2ac088f95",
    "/js/ui_navbar.js": "/js/ui_navbar.js?id=d3ccf556a3d7c1d43024",
    "/js/ui_navs.js": "/js/ui_navs.js?id=19aab08e72c235448b39",
    "/js/ui_notifications.js": "/js/ui_notifications.js?id=1c0664b60abd7e3bcf42",
    "/js/ui_sidenav.js": "/js/ui_sidenav.js?id=11a3040185f20ae96cab",
    "/js/ui_tooltips.js": "/js/ui_tooltips.js?id=7c8f817d7e2f071e2f31",
    "/js/ui_tour.js": "/js/ui_tour.js?id=0e6c907d28a0b7c0fcb5",
    "/js/ui_treeview.js": "/js/ui_treeview.js?id=4ddb78592a44b9672a12",
    "/css/demo.css": "/css/demo.css?id=dfd57b749d3fb58b1b02"
}
